(kicad_sch (version 20230121) (generator eeschema)

  (uuid 354a469e-cce8-4c97-a97d-0f3c1abd1c83)

  (paper "A4")

  (title_block
    (title "M.A.L.S. - subsystems control unit")
    (date "2024-03-11")
    (rev "0.1.0")
    (comment 1 "Location: https://codeberg.org/atlas144/mals-scu")
    (comment 2 "SPDX-License-Identifier: CERN-OHL-S-2.0")
    (comment 3 "Author: Jakub Švarc (jakubsvarc@protonmail.com)")
  )

  (lib_symbols
    (symbol "74xx:74HC04" (in_bom yes) (on_board yes)
      (property "Reference" "U" (at 0 1.27 0)
        (effects (font (size 1.27 1.27)))
      )
      (property "Value" "74HC04" (at 0 -1.27 0)
        (effects (font (size 1.27 1.27)))
      )
      (property "Footprint" "" (at 0 0 0)
        (effects (font (size 1.27 1.27)) hide)
      )
      (property "Datasheet" "https://assets.nexperia.com/documents/data-sheet/74HC_HCT04.pdf" (at 0 0 0)
        (effects (font (size 1.27 1.27)) hide)
      )
      (property "ki_locked" "" (at 0 0 0)
        (effects (font (size 1.27 1.27)))
      )
      (property "ki_keywords" "HCMOS not inv" (at 0 0 0)
        (effects (font (size 1.27 1.27)) hide)
      )
      (property "ki_description" "Hex Inverter" (at 0 0 0)
        (effects (font (size 1.27 1.27)) hide)
      )
      (property "ki_fp_filters" "DIP*W7.62mm* SSOP?14* TSSOP?14*" (at 0 0 0)
        (effects (font (size 1.27 1.27)) hide)
      )
      (symbol "74HC04_1_0"
        (polyline
          (pts
            (xy -3.81 3.81)
            (xy -3.81 -3.81)
            (xy 3.81 0)
            (xy -3.81 3.81)
          )
          (stroke (width 0.254) (type default))
          (fill (type background))
        )
        (pin input line (at -7.62 0 0) (length 3.81)
          (name "~" (effects (font (size 1.27 1.27))))
          (number "1" (effects (font (size 1.27 1.27))))
        )
        (pin output inverted (at 7.62 0 180) (length 3.81)
          (name "~" (effects (font (size 1.27 1.27))))
          (number "2" (effects (font (size 1.27 1.27))))
        )
      )
      (symbol "74HC04_2_0"
        (polyline
          (pts
            (xy -3.81 3.81)
            (xy -3.81 -3.81)
            (xy 3.81 0)
            (xy -3.81 3.81)
          )
          (stroke (width 0.254) (type default))
          (fill (type background))
        )
        (pin input line (at -7.62 0 0) (length 3.81)
          (name "~" (effects (font (size 1.27 1.27))))
          (number "3" (effects (font (size 1.27 1.27))))
        )
        (pin output inverted (at 7.62 0 180) (length 3.81)
          (name "~" (effects (font (size 1.27 1.27))))
          (number "4" (effects (font (size 1.27 1.27))))
        )
      )
      (symbol "74HC04_3_0"
        (polyline
          (pts
            (xy -3.81 3.81)
            (xy -3.81 -3.81)
            (xy 3.81 0)
            (xy -3.81 3.81)
          )
          (stroke (width 0.254) (type default))
          (fill (type background))
        )
        (pin input line (at -7.62 0 0) (length 3.81)
          (name "~" (effects (font (size 1.27 1.27))))
          (number "5" (effects (font (size 1.27 1.27))))
        )
        (pin output inverted (at 7.62 0 180) (length 3.81)
          (name "~" (effects (font (size 1.27 1.27))))
          (number "6" (effects (font (size 1.27 1.27))))
        )
      )
      (symbol "74HC04_4_0"
        (polyline
          (pts
            (xy -3.81 3.81)
            (xy -3.81 -3.81)
            (xy 3.81 0)
            (xy -3.81 3.81)
          )
          (stroke (width 0.254) (type default))
          (fill (type background))
        )
        (pin output inverted (at 7.62 0 180) (length 3.81)
          (name "~" (effects (font (size 1.27 1.27))))
          (number "8" (effects (font (size 1.27 1.27))))
        )
        (pin input line (at -7.62 0 0) (length 3.81)
          (name "~" (effects (font (size 1.27 1.27))))
          (number "9" (effects (font (size 1.27 1.27))))
        )
      )
      (symbol "74HC04_5_0"
        (polyline
          (pts
            (xy -3.81 3.81)
            (xy -3.81 -3.81)
            (xy 3.81 0)
            (xy -3.81 3.81)
          )
          (stroke (width 0.254) (type default))
          (fill (type background))
        )
        (pin output inverted (at 7.62 0 180) (length 3.81)
          (name "~" (effects (font (size 1.27 1.27))))
          (number "10" (effects (font (size 1.27 1.27))))
        )
        (pin input line (at -7.62 0 0) (length 3.81)
          (name "~" (effects (font (size 1.27 1.27))))
          (number "11" (effects (font (size 1.27 1.27))))
        )
      )
      (symbol "74HC04_6_0"
        (polyline
          (pts
            (xy -3.81 3.81)
            (xy -3.81 -3.81)
            (xy 3.81 0)
            (xy -3.81 3.81)
          )
          (stroke (width 0.254) (type default))
          (fill (type background))
        )
        (pin output inverted (at 7.62 0 180) (length 3.81)
          (name "~" (effects (font (size 1.27 1.27))))
          (number "12" (effects (font (size 1.27 1.27))))
        )
        (pin input line (at -7.62 0 0) (length 3.81)
          (name "~" (effects (font (size 1.27 1.27))))
          (number "13" (effects (font (size 1.27 1.27))))
        )
      )
      (symbol "74HC04_7_0"
        (pin power_in line (at 0 12.7 270) (length 5.08)
          (name "VCC" (effects (font (size 1.27 1.27))))
          (number "14" (effects (font (size 1.27 1.27))))
        )
        (pin power_in line (at 0 -12.7 90) (length 5.08)
          (name "GND" (effects (font (size 1.27 1.27))))
          (number "7" (effects (font (size 1.27 1.27))))
        )
      )
      (symbol "74HC04_7_1"
        (rectangle (start -5.08 7.62) (end 5.08 -7.62)
          (stroke (width 0.254) (type default))
          (fill (type background))
        )
      )
    )
    (symbol "74xx_IEEE:7408" (in_bom yes) (on_board yes)
      (property "Reference" "U" (at 2.54 7.62 0)
        (effects (font (size 1.27 1.27)))
      )
      (property "Value" "7408" (at 3.81 -8.89 0)
        (effects (font (size 1.27 1.27)))
      )
      (property "Footprint" "" (at 0 0 0)
        (effects (font (size 1.27 1.27)) hide)
      )
      (property "Datasheet" "" (at 0 0 0)
        (effects (font (size 1.27 1.27)) hide)
      )
      (symbol "7408_0_1"
        (rectangle (start -6.35 5.08) (end 6.35 -6.35)
          (stroke (width 0.254) (type default))
          (fill (type background))
        )
        (text "&" (at 0 0 0)
          (effects (font (size 2.54 2.54)))
        )
        (pin power_in line (at 0 10.16 270) (length 5.08)
          (name "VCC" (effects (font (size 1.27 1.27))))
          (number "14" (effects (font (size 1.27 1.27))))
        )
        (pin power_in line (at 0 -10.16 90) (length 3.81)
          (name "GND" (effects (font (size 1.27 1.27))))
          (number "7" (effects (font (size 1.27 1.27))))
        )
      )
      (symbol "7408_1_1"
        (pin input line (at -12.7 2.54 0) (length 6.35)
          (name "~" (effects (font (size 1.27 1.27))))
          (number "1" (effects (font (size 1.27 1.27))))
        )
        (pin input line (at -12.7 -2.54 0) (length 6.35)
          (name "~" (effects (font (size 1.27 1.27))))
          (number "2" (effects (font (size 1.27 1.27))))
        )
        (pin output line (at 12.7 0 180) (length 6.35)
          (name "~" (effects (font (size 1.27 1.27))))
          (number "3" (effects (font (size 1.27 1.27))))
        )
      )
      (symbol "7408_2_1"
        (pin input line (at -12.7 2.54 0) (length 6.35)
          (name "~" (effects (font (size 1.27 1.27))))
          (number "4" (effects (font (size 1.27 1.27))))
        )
        (pin input line (at -12.7 -2.54 0) (length 6.35)
          (name "~" (effects (font (size 1.27 1.27))))
          (number "5" (effects (font (size 1.27 1.27))))
        )
        (pin input line (at 12.7 0 180) (length 6.35)
          (name "~" (effects (font (size 1.27 1.27))))
          (number "6" (effects (font (size 1.27 1.27))))
        )
      )
      (symbol "7408_3_1"
        (pin input line (at -12.7 -2.54 0) (length 6.35)
          (name "~" (effects (font (size 1.27 1.27))))
          (number "10" (effects (font (size 1.27 1.27))))
        )
        (pin input line (at 12.7 0 180) (length 6.35)
          (name "~" (effects (font (size 1.27 1.27))))
          (number "8" (effects (font (size 1.27 1.27))))
        )
        (pin input line (at -12.7 2.54 0) (length 6.35)
          (name "~" (effects (font (size 1.27 1.27))))
          (number "9" (effects (font (size 1.27 1.27))))
        )
      )
      (symbol "7408_4_1"
        (pin input line (at 12.7 0 180) (length 6.35)
          (name "~" (effects (font (size 1.27 1.27))))
          (number "11" (effects (font (size 1.27 1.27))))
        )
        (pin input line (at -12.7 2.54 0) (length 6.35)
          (name "~" (effects (font (size 1.27 1.27))))
          (number "12" (effects (font (size 1.27 1.27))))
        )
        (pin input line (at -12.7 -2.54 0) (length 6.35)
          (name "~" (effects (font (size 1.27 1.27))))
          (number "13" (effects (font (size 1.27 1.27))))
        )
      )
    )
    (symbol "Connector:Conn_01x06_Pin" (pin_names (offset 1.016) hide) (in_bom yes) (on_board yes)
      (property "Reference" "J" (at 0 7.62 0)
        (effects (font (size 1.27 1.27)))
      )
      (property "Value" "Conn_01x06_Pin" (at 0 -10.16 0)
        (effects (font (size 1.27 1.27)))
      )
      (property "Footprint" "" (at 0 0 0)
        (effects (font (size 1.27 1.27)) hide)
      )
      (property "Datasheet" "~" (at 0 0 0)
        (effects (font (size 1.27 1.27)) hide)
      )
      (property "ki_locked" "" (at 0 0 0)
        (effects (font (size 1.27 1.27)))
      )
      (property "ki_keywords" "connector" (at 0 0 0)
        (effects (font (size 1.27 1.27)) hide)
      )
      (property "ki_description" "Generic connector, single row, 01x06, script generated" (at 0 0 0)
        (effects (font (size 1.27 1.27)) hide)
      )
      (property "ki_fp_filters" "Connector*:*_1x??_*" (at 0 0 0)
        (effects (font (size 1.27 1.27)) hide)
      )
      (symbol "Conn_01x06_Pin_1_1"
        (polyline
          (pts
            (xy 1.27 -7.62)
            (xy 0.8636 -7.62)
          )
          (stroke (width 0.1524) (type default))
          (fill (type none))
        )
        (polyline
          (pts
            (xy 1.27 -5.08)
            (xy 0.8636 -5.08)
          )
          (stroke (width 0.1524) (type default))
          (fill (type none))
        )
        (polyline
          (pts
            (xy 1.27 -2.54)
            (xy 0.8636 -2.54)
          )
          (stroke (width 0.1524) (type default))
          (fill (type none))
        )
        (polyline
          (pts
            (xy 1.27 0)
            (xy 0.8636 0)
          )
          (stroke (width 0.1524) (type default))
          (fill (type none))
        )
        (polyline
          (pts
            (xy 1.27 2.54)
            (xy 0.8636 2.54)
          )
          (stroke (width 0.1524) (type default))
          (fill (type none))
        )
        (polyline
          (pts
            (xy 1.27 5.08)
            (xy 0.8636 5.08)
          )
          (stroke (width 0.1524) (type default))
          (fill (type none))
        )
        (rectangle (start 0.8636 -7.493) (end 0 -7.747)
          (stroke (width 0.1524) (type default))
          (fill (type outline))
        )
        (rectangle (start 0.8636 -4.953) (end 0 -5.207)
          (stroke (width 0.1524) (type default))
          (fill (type outline))
        )
        (rectangle (start 0.8636 -2.413) (end 0 -2.667)
          (stroke (width 0.1524) (type default))
          (fill (type outline))
        )
        (rectangle (start 0.8636 0.127) (end 0 -0.127)
          (stroke (width 0.1524) (type default))
          (fill (type outline))
        )
        (rectangle (start 0.8636 2.667) (end 0 2.413)
          (stroke (width 0.1524) (type default))
          (fill (type outline))
        )
        (rectangle (start 0.8636 5.207) (end 0 4.953)
          (stroke (width 0.1524) (type default))
          (fill (type outline))
        )
        (pin passive line (at 5.08 5.08 180) (length 3.81)
          (name "Pin_1" (effects (font (size 1.27 1.27))))
          (number "1" (effects (font (size 1.27 1.27))))
        )
        (pin passive line (at 5.08 2.54 180) (length 3.81)
          (name "Pin_2" (effects (font (size 1.27 1.27))))
          (number "2" (effects (font (size 1.27 1.27))))
        )
        (pin passive line (at 5.08 0 180) (length 3.81)
          (name "Pin_3" (effects (font (size 1.27 1.27))))
          (number "3" (effects (font (size 1.27 1.27))))
        )
        (pin passive line (at 5.08 -2.54 180) (length 3.81)
          (name "Pin_4" (effects (font (size 1.27 1.27))))
          (number "4" (effects (font (size 1.27 1.27))))
        )
        (pin passive line (at 5.08 -5.08 180) (length 3.81)
          (name "Pin_5" (effects (font (size 1.27 1.27))))
          (number "5" (effects (font (size 1.27 1.27))))
        )
        (pin passive line (at 5.08 -7.62 180) (length 3.81)
          (name "Pin_6" (effects (font (size 1.27 1.27))))
          (number "6" (effects (font (size 1.27 1.27))))
        )
      )
    )
    (symbol "power:+5V" (power) (pin_names (offset 0)) (in_bom yes) (on_board yes)
      (property "Reference" "#PWR" (at 0 -3.81 0)
        (effects (font (size 1.27 1.27)) hide)
      )
      (property "Value" "+5V" (at 0 3.556 0)
        (effects (font (size 1.27 1.27)))
      )
      (property "Footprint" "" (at 0 0 0)
        (effects (font (size 1.27 1.27)) hide)
      )
      (property "Datasheet" "" (at 0 0 0)
        (effects (font (size 1.27 1.27)) hide)
      )
      (property "ki_keywords" "global power" (at 0 0 0)
        (effects (font (size 1.27 1.27)) hide)
      )
      (property "ki_description" "Power symbol creates a global label with name \"+5V\"" (at 0 0 0)
        (effects (font (size 1.27 1.27)) hide)
      )
      (symbol "+5V_0_1"
        (polyline
          (pts
            (xy -0.762 1.27)
            (xy 0 2.54)
          )
          (stroke (width 0) (type default))
          (fill (type none))
        )
        (polyline
          (pts
            (xy 0 0)
            (xy 0 2.54)
          )
          (stroke (width 0) (type default))
          (fill (type none))
        )
        (polyline
          (pts
            (xy 0 2.54)
            (xy 0.762 1.27)
          )
          (stroke (width 0) (type default))
          (fill (type none))
        )
      )
      (symbol "+5V_1_1"
        (pin power_in line (at 0 0 90) (length 0) hide
          (name "+5V" (effects (font (size 1.27 1.27))))
          (number "1" (effects (font (size 1.27 1.27))))
        )
      )
    )
    (symbol "power:GND" (power) (pin_names (offset 0)) (in_bom yes) (on_board yes)
      (property "Reference" "#PWR" (at 0 -6.35 0)
        (effects (font (size 1.27 1.27)) hide)
      )
      (property "Value" "GND" (at 0 -3.81 0)
        (effects (font (size 1.27 1.27)))
      )
      (property "Footprint" "" (at 0 0 0)
        (effects (font (size 1.27 1.27)) hide)
      )
      (property "Datasheet" "" (at 0 0 0)
        (effects (font (size 1.27 1.27)) hide)
      )
      (property "ki_keywords" "global power" (at 0 0 0)
        (effects (font (size 1.27 1.27)) hide)
      )
      (property "ki_description" "Power symbol creates a global label with name \"GND\" , ground" (at 0 0 0)
        (effects (font (size 1.27 1.27)) hide)
      )
      (symbol "GND_0_1"
        (polyline
          (pts
            (xy 0 0)
            (xy 0 -1.27)
            (xy 1.27 -1.27)
            (xy 0 -2.54)
            (xy -1.27 -1.27)
            (xy 0 -1.27)
          )
          (stroke (width 0) (type default))
          (fill (type none))
        )
      )
      (symbol "GND_1_1"
        (pin power_in line (at 0 0 270) (length 0) hide
          (name "GND" (effects (font (size 1.27 1.27))))
          (number "1" (effects (font (size 1.27 1.27))))
        )
      )
    )
  )

  (junction (at 163.83 95.25) (diameter 0) (color 0 0 0 0)
    (uuid 0647e9f6-d73f-496d-861f-6a96a3a43a8f)
  )
  (junction (at 163.83 92.71) (diameter 0) (color 0 0 0 0)
    (uuid 82733e24-a640-4e7c-9600-78df14f29790)
  )
  (junction (at 127 107.95) (diameter 0) (color 0 0 0 0)
    (uuid a5aef035-f8b2-4909-bab7-1f5b640b45d3)
  )
  (junction (at 124.46 82.55) (diameter 0) (color 0 0 0 0)
    (uuid a8ffad85-8fe5-4a9c-a522-e9d15c5566dc)
  )

  (wire (pts (xy 166.37 85.09) (xy 168.91 85.09))
    (stroke (width 0) (type default))
    (uuid 04a81b8a-2779-4c0c-a850-8054491ba4e0)
  )
  (wire (pts (xy 128.27 107.95) (xy 127 107.95))
    (stroke (width 0) (type default))
    (uuid 0a29de2b-1864-4c7e-9e91-ab2ede95438b)
  )
  (wire (pts (xy 163.83 95.25) (xy 163.83 102.87))
    (stroke (width 0) (type default))
    (uuid 0f57cdff-decb-4802-b55a-fe4419dce228)
  )
  (wire (pts (xy 127 87.63) (xy 140.97 87.63))
    (stroke (width 0) (type default))
    (uuid 1cca0e19-dc94-4300-8788-b9de4e630eae)
  )
  (wire (pts (xy 119.38 107.95) (xy 127 107.95))
    (stroke (width 0) (type default))
    (uuid 272c96d4-6e0a-48f2-8065-b695712fa874)
  )
  (wire (pts (xy 127 107.95) (xy 127 87.63))
    (stroke (width 0) (type default))
    (uuid 33ce7c19-3f9a-4939-a2a3-28fcbf40cbd2)
  )
  (wire (pts (xy 119.38 82.55) (xy 124.46 82.55))
    (stroke (width 0) (type default))
    (uuid 46c4d6ca-ece6-4124-85f0-a6f39a40017b)
  )
  (wire (pts (xy 168.91 90.17) (xy 163.83 90.17))
    (stroke (width 0) (type default))
    (uuid 4cd42720-43ab-45d7-a76f-e90964961e61)
  )
  (wire (pts (xy 168.91 87.63) (xy 161.29 87.63))
    (stroke (width 0) (type default))
    (uuid 64aabdfc-dfd0-4235-9e73-5f4a15e5ab3b)
  )
  (wire (pts (xy 161.29 105.41) (xy 153.67 105.41))
    (stroke (width 0) (type default))
    (uuid 72388e12-1b46-4946-bfb9-77e267b65b35)
  )
  (wire (pts (xy 168.91 97.79) (xy 168.91 102.87))
    (stroke (width 0) (type default))
    (uuid a59d9af3-3119-4cdd-8aae-fee86a4c600f)
  )
  (wire (pts (xy 163.83 95.25) (xy 168.91 95.25))
    (stroke (width 0) (type default))
    (uuid ab9be5eb-7e64-4548-8c95-f817463a21fb)
  )
  (wire (pts (xy 124.46 82.55) (xy 124.46 102.87))
    (stroke (width 0) (type default))
    (uuid ac6eb445-2e10-4d6d-8dbe-09d449754400)
  )
  (wire (pts (xy 163.83 92.71) (xy 163.83 95.25))
    (stroke (width 0) (type default))
    (uuid b82375eb-b4b5-4183-87fd-4973af1df236)
  )
  (wire (pts (xy 163.83 92.71) (xy 168.91 92.71))
    (stroke (width 0) (type default))
    (uuid bd0bbb3e-fd20-4639-9c0b-cafad6499a9d)
  )
  (wire (pts (xy 124.46 82.55) (xy 125.73 82.55))
    (stroke (width 0) (type default))
    (uuid c3b8009c-65a1-40dc-b480-2c4bd620ebc2)
  )
  (wire (pts (xy 161.29 87.63) (xy 161.29 105.41))
    (stroke (width 0) (type default))
    (uuid d652f249-c366-43de-9c7a-c582351099f2)
  )
  (wire (pts (xy 163.83 90.17) (xy 163.83 92.71))
    (stroke (width 0) (type default))
    (uuid ecb94be2-40b4-4737-9ae8-a6368fcfab24)
  )
  (wire (pts (xy 124.46 102.87) (xy 128.27 102.87))
    (stroke (width 0) (type default))
    (uuid edb69943-247f-4b9e-9602-152161d85b68)
  )

  (text "PWM forward\nPWM backward\nEnable forward\nEnable backward\nVcc\nGND"
    (at 175.26 97.79 0)
    (effects (font (size 1.37 1.37)) (justify left bottom))
    (uuid 0290786b-3ad4-4384-b7e5-1fb0e0bb4c1f)
  )

  (hierarchical_label "PWM" (shape input) (at 119.38 107.95 180) (fields_autoplaced)
    (effects (font (size 1.27 1.27)) (justify right))
    (uuid 56a38e43-263b-4235-ba48-19fc5ae413e3)
  )
  (hierarchical_label "Direction" (shape input) (at 119.38 82.55 180) (fields_autoplaced)
    (effects (font (size 1.27 1.27)) (justify right))
    (uuid 8dfac3ce-317f-43fc-bb2b-5f694969bdbe)
  )

  (symbol (lib_id "74xx_IEEE:7408") (at 153.67 85.09 0) (unit 2)
    (in_bom yes) (on_board yes) (dnp no)
    (uuid 01f19d81-a7a3-4331-a653-a75f931504c9)
    (property "Reference" "U4" (at 157.48 85.09 0)
      (effects (font (size 1.27 1.27)))
    )
    (property "Value" "7408" (at 149.86 85.09 0)
      (effects (font (size 1.27 1.27)))
    )
    (property "Footprint" "Package_DIP:DIP-14_W7.62mm_Socket_LongPads" (at 153.67 85.09 0)
      (effects (font (size 1.27 1.27)) hide)
    )
    (property "Datasheet" "" (at 153.67 85.09 0)
      (effects (font (size 1.27 1.27)) hide)
    )
    (pin "14" (uuid c283f32a-bf62-45f7-b7a4-35d3f39d0286))
    (pin "7" (uuid 89aa128b-0b76-4bd9-b33f-a079a03f1ddf))
    (pin "1" (uuid dd437266-6905-43ea-8724-df6508f7b675))
    (pin "2" (uuid f5db33a1-513b-481e-b582-f9ef7fc6c9c8))
    (pin "3" (uuid c129b14f-2493-48da-b6a2-f1d0de1fca90))
    (pin "4" (uuid f68263e3-3be7-44d3-b4f8-a7715ce70f8e))
    (pin "5" (uuid 1e2f8fd7-3b37-4c61-ba54-c69b0b82f8c5))
    (pin "6" (uuid 1d0b4a3b-9833-43c4-ac15-9a8ec65b8c55))
    (pin "10" (uuid 1ce70766-dfbe-4f51-ae1e-030b11ac370f))
    (pin "8" (uuid ca3eb41f-04ee-48af-9d5f-4d5a27499e57))
    (pin "9" (uuid 0da5611e-6137-4811-bd97-53db479a7932))
    (pin "11" (uuid b5668953-e09c-4330-a85a-98e679f3897a))
    (pin "12" (uuid 5a63800e-16f3-480c-b58b-23389c436257))
    (pin "13" (uuid dfb17291-6498-4aae-95e9-c2c4b50f2601))
    (instances
      (project "mals-scu"
        (path "/02e71c57-1e56-48ad-b7a6-0d08b1291289/85854460-287e-4d24-b53e-46c8c042e166"
          (reference "U4") (unit 2)
        )
      )
    )
  )

  (symbol (lib_id "power:+5V") (at 163.83 102.87 180) (unit 1)
    (in_bom yes) (on_board yes) (dnp no)
    (uuid 16fc2c61-7737-439c-a82d-457969ac17ba)
    (property "Reference" "#PWR033" (at 163.83 99.06 0)
      (effects (font (size 1.27 1.27)) hide)
    )
    (property "Value" "+5V" (at 163.83 107.95 0)
      (effects (font (size 1.27 1.27)))
    )
    (property "Footprint" "" (at 163.83 102.87 0)
      (effects (font (size 1.27 1.27)) hide)
    )
    (property "Datasheet" "" (at 163.83 102.87 0)
      (effects (font (size 1.27 1.27)) hide)
    )
    (pin "1" (uuid 5528efcf-2086-4c66-914c-31e830d81ea6))
    (instances
      (project "mals-scu"
        (path "/02e71c57-1e56-48ad-b7a6-0d08b1291289/85854460-287e-4d24-b53e-46c8c042e166"
          (reference "#PWR033") (unit 1)
        )
      )
    )
  )

  (symbol (lib_id "power:GND") (at 168.91 102.87 0) (unit 1)
    (in_bom yes) (on_board yes) (dnp no)
    (uuid 206aad30-94c2-4223-aa5e-1adbb536d61a)
    (property "Reference" "#PWR034" (at 168.91 109.22 0)
      (effects (font (size 1.27 1.27)) hide)
    )
    (property "Value" "GND" (at 168.91 107.95 0)
      (effects (font (size 1.27 1.27)))
    )
    (property "Footprint" "" (at 168.91 102.87 0)
      (effects (font (size 1.27 1.27)) hide)
    )
    (property "Datasheet" "" (at 168.91 102.87 0)
      (effects (font (size 1.27 1.27)) hide)
    )
    (pin "1" (uuid 2bd45df8-bc3c-4a58-8d3a-9936b856aa2d))
    (instances
      (project "mals-scu"
        (path "/02e71c57-1e56-48ad-b7a6-0d08b1291289/85854460-287e-4d24-b53e-46c8c042e166"
          (reference "#PWR034") (unit 1)
        )
      )
    )
  )

  (symbol (lib_id "power:+5V") (at 153.67 74.93 0) (unit 1)
    (in_bom yes) (on_board yes) (dnp no) (fields_autoplaced)
    (uuid 2ca68fdb-ec86-4161-96c2-9e6f2e817872)
    (property "Reference" "#PWR06" (at 153.67 78.74 0)
      (effects (font (size 1.27 1.27)) hide)
    )
    (property "Value" "+5V" (at 153.67 71.12 0)
      (effects (font (size 1.27 1.27)))
    )
    (property "Footprint" "" (at 153.67 74.93 0)
      (effects (font (size 1.27 1.27)) hide)
    )
    (property "Datasheet" "" (at 153.67 74.93 0)
      (effects (font (size 1.27 1.27)) hide)
    )
    (pin "1" (uuid 0751562b-bba5-4969-af3d-6331ca71beab))
    (instances
      (project "mals-scu"
        (path "/02e71c57-1e56-48ad-b7a6-0d08b1291289/85854460-287e-4d24-b53e-46c8c042e166"
          (reference "#PWR06") (unit 1)
        )
      )
    )
  )

  (symbol (lib_id "Connector:Conn_01x06_Pin") (at 173.99 90.17 0) (mirror y) (unit 1)
    (in_bom yes) (on_board yes) (dnp no)
    (uuid 31229f98-5d2b-4cd7-99ac-5158885e3e30)
    (property "Reference" "J5" (at 171.45 101.6 0)
      (effects (font (size 1.27 1.27)) (justify right))
    )
    (property "Value" "Motor - backward right" (at 163.83 81.28 0)
      (effects (font (size 1.27 1.27)) (justify right) hide)
    )
    (property "Footprint" "Connector_PinHeader_2.54mm:PinHeader_1x06_P2.54mm_Vertical" (at 173.99 90.17 0)
      (effects (font (size 1.27 1.27)) hide)
    )
    (property "Datasheet" "~" (at 173.99 90.17 0)
      (effects (font (size 1.27 1.27)) hide)
    )
    (pin "1" (uuid d6afed40-ee1e-4208-9e82-f8101bc66a4f))
    (pin "2" (uuid 70bba7f9-6f5f-4e5b-a27f-7eed14681792))
    (pin "3" (uuid 65f8feb4-83ea-4bb2-8bdc-572e214f6a3e))
    (pin "4" (uuid 9f474182-067b-4b46-b0a1-1a3af30e5abd))
    (pin "5" (uuid 0114a759-b93f-4d2b-b07b-53d766386a78))
    (pin "6" (uuid a111c296-18bb-4372-a031-3df2b333e26d))
    (instances
      (project "mals-scu"
        (path "/02e71c57-1e56-48ad-b7a6-0d08b1291289/85854460-287e-4d24-b53e-46c8c042e166"
          (reference "J5") (unit 1)
        )
      )
    )
  )

  (symbol (lib_id "power:GND") (at 140.97 115.57 0) (unit 1)
    (in_bom yes) (on_board yes) (dnp no)
    (uuid 4eb33f89-4274-4047-b5c0-db008d158b4d)
    (property "Reference" "#PWR05" (at 140.97 121.92 0)
      (effects (font (size 1.27 1.27)) hide)
    )
    (property "Value" "GND" (at 144.78 115.57 0)
      (effects (font (size 1.27 1.27)))
    )
    (property "Footprint" "" (at 140.97 115.57 0)
      (effects (font (size 1.27 1.27)) hide)
    )
    (property "Datasheet" "" (at 140.97 115.57 0)
      (effects (font (size 1.27 1.27)) hide)
    )
    (pin "1" (uuid ff2197d4-5be2-480b-9247-a53a976c7244))
    (instances
      (project "mals-scu"
        (path "/02e71c57-1e56-48ad-b7a6-0d08b1291289/85854460-287e-4d24-b53e-46c8c042e166"
          (reference "#PWR05") (unit 1)
        )
      )
    )
  )

  (symbol (lib_id "power:+5V") (at 140.97 95.25 0) (unit 1)
    (in_bom yes) (on_board yes) (dnp no)
    (uuid 83bca5f7-18d5-4b55-9e4c-9dc0fe9d0a56)
    (property "Reference" "#PWR04" (at 140.97 99.06 0)
      (effects (font (size 1.27 1.27)) hide)
    )
    (property "Value" "+5V" (at 140.97 91.44 0)
      (effects (font (size 1.27 1.27)))
    )
    (property "Footprint" "" (at 140.97 95.25 0)
      (effects (font (size 1.27 1.27)) hide)
    )
    (property "Datasheet" "" (at 140.97 95.25 0)
      (effects (font (size 1.27 1.27)) hide)
    )
    (pin "1" (uuid 2529c0cc-a204-4bf3-aeea-4e6e78c7e31f))
    (instances
      (project "mals-scu"
        (path "/02e71c57-1e56-48ad-b7a6-0d08b1291289/85854460-287e-4d24-b53e-46c8c042e166"
          (reference "#PWR04") (unit 1)
        )
      )
    )
  )

  (symbol (lib_id "power:GND") (at 153.67 95.25 0) (unit 1)
    (in_bom yes) (on_board yes) (dnp no) (fields_autoplaced)
    (uuid c15caa9e-3459-4b8d-b8da-36b19eab49e7)
    (property "Reference" "#PWR07" (at 153.67 101.6 0)
      (effects (font (size 1.27 1.27)) hide)
    )
    (property "Value" "GND" (at 153.67 100.33 0)
      (effects (font (size 1.27 1.27)))
    )
    (property "Footprint" "" (at 153.67 95.25 0)
      (effects (font (size 1.27 1.27)) hide)
    )
    (property "Datasheet" "" (at 153.67 95.25 0)
      (effects (font (size 1.27 1.27)) hide)
    )
    (pin "1" (uuid 43977059-6f40-4537-a3ea-30c2c162c9b7))
    (instances
      (project "mals-scu"
        (path "/02e71c57-1e56-48ad-b7a6-0d08b1291289/85854460-287e-4d24-b53e-46c8c042e166"
          (reference "#PWR07") (unit 1)
        )
      )
    )
  )

  (symbol (lib_id "74xx_IEEE:7408") (at 140.97 105.41 0) (unit 3)
    (in_bom yes) (on_board yes) (dnp no)
    (uuid c64d862d-e673-4760-9852-9a424be5f515)
    (property "Reference" "U4" (at 144.78 105.41 0)
      (effects (font (size 1.27 1.27)))
    )
    (property "Value" "7408" (at 137.16 105.41 0)
      (effects (font (size 1.27 1.27)))
    )
    (property "Footprint" "Package_DIP:DIP-14_W7.62mm_Socket_LongPads" (at 140.97 105.41 0)
      (effects (font (size 1.27 1.27)) hide)
    )
    (property "Datasheet" "" (at 140.97 105.41 0)
      (effects (font (size 1.27 1.27)) hide)
    )
    (pin "14" (uuid a5c2c0b7-2a34-4697-83cf-b463225f279f))
    (pin "7" (uuid b961e928-3e4c-4a8b-b050-23929e6543c7))
    (pin "1" (uuid 002abe9c-9267-4c01-8082-0b0b3c4fcb1a))
    (pin "2" (uuid b1d117db-9c22-4cec-b783-c827b0de47e2))
    (pin "3" (uuid 9062768c-3075-4a2d-9210-3fef8a314729))
    (pin "4" (uuid 0381c3c2-8aab-4dad-a942-fc7173bed5c5))
    (pin "5" (uuid c556e41e-8750-4142-8ce2-b11dde7f0584))
    (pin "6" (uuid 0f7a2d70-5887-433b-bcc8-94ed2cc73773))
    (pin "10" (uuid 30791547-ac58-421e-b3c4-639694c86616))
    (pin "8" (uuid 2b2f9c80-42e3-4076-809c-b2e52136e172))
    (pin "9" (uuid 4f1d3184-3711-45e7-9593-50c6ea5c20ab))
    (pin "11" (uuid d68d0e14-1f2b-4bc6-8b57-c56bcf6b6991))
    (pin "12" (uuid ff04a212-c084-40b2-8b63-272f22d55dfb))
    (pin "13" (uuid 1aebfa1f-4d11-484e-8d61-ba77afd782dd))
    (instances
      (project "mals-scu"
        (path "/02e71c57-1e56-48ad-b7a6-0d08b1291289/85854460-287e-4d24-b53e-46c8c042e166"
          (reference "U4") (unit 3)
        )
      )
    )
  )

  (symbol (lib_id "74xx:74HC04") (at 133.35 82.55 0) (unit 2)
    (in_bom yes) (on_board yes) (dnp no)
    (uuid f939c583-edd6-45f2-80e3-99b149b2e00f)
    (property "Reference" "U5" (at 132.08 82.55 0)
      (effects (font (size 1.27 1.27)))
    )
    (property "Value" "74HC04" (at 133.35 77.47 0)
      (effects (font (size 1.27 1.27)))
    )
    (property "Footprint" "Package_DIP:DIP-14_W7.62mm_Socket_LongPads" (at 133.35 82.55 0)
      (effects (font (size 1.27 1.27)) hide)
    )
    (property "Datasheet" "https://assets.nexperia.com/documents/data-sheet/74HC_HCT04.pdf" (at 133.35 82.55 0)
      (effects (font (size 1.27 1.27)) hide)
    )
    (pin "1" (uuid be4e7f89-5793-4c13-a48c-349fd4539e5f))
    (pin "2" (uuid 627f22e1-d7d2-4b94-af31-599f6c8327c3))
    (pin "3" (uuid 263fa2b3-7ff9-42f2-843e-c53a7b18456d))
    (pin "4" (uuid 0fe219ed-8421-479c-bf58-459d4dbd3d93))
    (pin "5" (uuid d7aa1529-4dd7-44f6-88be-cdbb00c4c24e))
    (pin "6" (uuid f688382d-4814-44b9-a05d-713beefcf940))
    (pin "8" (uuid f6fe16e3-5f0f-447d-9cac-f90c4888032f))
    (pin "9" (uuid 5d4e188c-5b90-459a-9139-7b0f03daf95f))
    (pin "10" (uuid e881d92d-7048-4d23-9802-211311304f3f))
    (pin "11" (uuid 5ce9a4d3-f32f-43e1-abaf-f83cd423352c))
    (pin "12" (uuid 9e2d63bf-957f-461b-9cf5-020873324425))
    (pin "13" (uuid e03f86f3-0424-4d33-9e31-7f063d43f91a))
    (pin "14" (uuid ee2e3b14-2ed6-40b4-aa3d-c8baa66b35e9))
    (pin "7" (uuid b919629e-f9d1-43d3-8dc6-d2731a862ac6))
    (instances
      (project "mals-scu"
        (path "/02e71c57-1e56-48ad-b7a6-0d08b1291289/85854460-287e-4d24-b53e-46c8c042e166"
          (reference "U5") (unit 2)
        )
      )
    )
  )
)
